831769 384714 509
958345 756441 525
829196 347439 509
256587 114324 443
808380 817029 406
397896 113645 443
395941 142307 443
356184 955468 525
407411 65592 443
187628 350825 443
227831 171092 386
680795 291488 509
616180 898786 525
42087 941677 525
779890 305229 509
119456 39636 354
261943 363043 441
254285 323995 407
910600 482501 525
969438 407104 525
960611 111410 525
350980 205914 443
44766 723633 509
161624 510791 449
775976 241955 509
435997 523596 470
392577 957540 525
550874 228559 470
843350 306158 525
538007 273001 470
603807 440391 470
712822 629665 504
461539 397428 449
529168 688379 509
486027 803632 509
938467 582014 525
407028 479927 449
431037 490188 444
665755 16145 509
368000 383871 423
474318 367842 449
174149 175037 334
321445 795670 509
455243 517724 470
496295 15264 449
127684 570362 470
367214 254683 441
204138 873920 525
348549 26833 443
965616 126450 525
716229 815845 468
868667 41755 525
691546 549299 509
685763 668494 385
502651 682218 509
57621 515650 470
454566 954170 525
848118 581331 525
391028 397375 405
435614 914106 525
315296 971579 525
348911 649497 509
352076 280572 441
461770 559047 470
679010 185549 509
296761 25292 443
533726 772143 509
857461 13251 525
911215 50803 525
807357 47479 509
106356 974264 525
744528 423489 509
827691 841273 525
783064 883292 525
211106 922245 525
645366 767066 504
695820 190470 509
993852 216408 525
390198 371513 436
786306 349381 509
251108 133863 443
25969 453518 449
128149 135435 344
395679 150187 443
482821 813433 509
914752 172191 525
382788 259137 441
937977 866207 476
192620 254555 443
527996 782649 509
235000 564483 470
475523 747748 509
580123 875354 525
16263 626143 470
36077 351363 443
599037 576984 434
359281 638715 509
896570 982548 507
681594 290443 509
618530 385551 470
159488 7072 383
585835 709878 509
890732 792547 525
955912 759123 525
215326 110159 383
450497 488339 444
619924 389815 470
930728 826618 525
598848 785868 509
688721 891594 525
989747 913793 507
380431 281691 441
498315 404369 449
611588 757905 509
353979 505625 449
806588 34170 509
297280 635650 509
139680 583775 470
389694 743482 509
988443 339091 525
457936 570633 470
581457 912790 525
337333 422406 449
255225 500997 449
462630 856028 525
9851 942285 525
769643 771706 349
858608 501138 525
317454 753072 509
803459 820500 450
518388 145084 470
136758 145247 375
371802 280311 441
168770 356888 443
637742 468613 509
411324 579543 470
457831 850590 525
709795 118219 509
533278 981773 525
808826 272608 509
603695 62397 470
361553 133154 443
635439 56649 509
447822 810808 509
824491 555719 509
253766 677923 509
246426 130481 443
683258 104907 509
744802 92577 509
321227 865786 525
439373 36715 449
349423 855524 525
56749 272375 443
727187 12913 509
138757 269705 443
192900 375110 443
67463 542244 470
416225 3350 449
760910 968224 525
936931 114073 525
839882 412519 525
362959 125734 443
43570 652953 509
668596 488729 509
680772 37510 509
333034 104396 443
943350 3075 525
490207 858736 525
979882 571727 525
222790 297522 443
730064 207164 509
626337 751638 504
654148 961717 525
293996 285017 389
656776 673510 442
427879 682220 509
700837 83659 509
870084 318744 525
834521 135026 509
964545 164291 525
613550 386878 470
310269 357780 441
190567 433910 449
147217 762571 509
664985 453444 509
327973 661347 509
639145 521213 509
571535 282345 470
310362 133998 443
969945 162087 525
843560 456467 525
524166 444508 470
215425 169965 373
822512 92316 509
198558 442525 449
843118 643700 525
662921 462319 509
261324 585933 470
911885 180782 525
573536 637156 509
341471 397048 441
811038 228632 509
313947 81924 443
610370 261934 470
770714 887468 525
931335 779067 525
774435 117359 509
769335 528191 509
866677 43568 525
795664 533644 509
854881 346493 525
977549 686145 525
401220 628505 509
879134 57571 525
576002 405009 470
525278 114388 470
359513 712447 509
421954 254845 449
928767 489289 525
570176 127207 470
449415 183881 449
84834 999827 525
8077 622161 470
335438 48570 443
266689 28571 443
362735 803048 509
397974 235105 441
693266 150424 509
869931 536305 525
573407 233916 470
687288 352080 509
75058 302974 443
769150 845601 525
487077 72978 449
244609 910140 525
899719 434594 525
581874 486514 470
913740 416392 525
631515 1981 509
961517 149019 525
860716 831706 525
814423 205261 509
282949 75577 443
468867 97485 449
846291 615949 525
752844 902490 525
333646 376069 441
675464 953472 525
149386 934185 525
753878 289827 509
